<svg xmlns="http://www.w3.org/2000/svg" width="45.446" height="45.446" viewBox="0 0 45.446 45.446">
  <g id="blocked" transform="translate(1166 -2542)">
    <path id="Ellipse_166" data-name="Ellipse 166" d="M22.723,0A22.723,22.723,0,1,1,0,22.723,22.723,22.723,0,0,1,22.723,0Z" transform="translate(-1166 2542)" fill="#f5f5ff"/>
    <g id="Group_883" data-name="Group 883" transform="translate(-1376.471 1327.925) rotate(45)">
      <rect id="Rectangle_863" data-name="Rectangle 863" width="20.169" height="2.839" rx="1.419" transform="translate(1041.036 699.664) rotate(90)" fill="#0008ff"/>
      <rect id="Rectangle_864" data-name="Rectangle 864" width="20.169" height="2.839" rx="1.419" transform="translate(1029.531 708.329)" fill="#0008ff"/>
    </g>
  </g>
</svg>
