<?xml version="1.0"?>
<svg xmlns="http://www.w3.org/2000/svg" xmlns:xlink="http://www.w3.org/1999/xlink" version="1.1" id="Capa_1" x="0px" y="0px" width="512px" height="512px" viewBox="0 0 540.329 540.329" style="enable-background:new 0 0 540.329 540.329;" xml:space="preserve"><g><g>
	<g>
		<polygon points="0.002,540.329 58.797,532.66 7.664,481.528   " data-original="#000000" class="active-path" data-old_color="#000000" fill="#FFFFFF"/>
		<polygon points="16.685,412.341 10.657,458.56 81.765,529.668 127.983,523.64 442.637,208.992 331.338,97.688   " data-original="#000000" class="active-path" data-old_color="#000000" fill="#FFFFFF"/>
		<path d="M451.248,5.606C447.502,1.861,442.57,0,437.57,0c-5.264,0-10.6,2.062-14.701,6.157L346.92,82.106l111.299,111.298    l75.949-75.949c7.992-7.986,8.236-20.698,0.557-28.378L451.248,5.606z" data-original="#000000" class="active-path" data-old_color="#000000" fill="#FFFFFF"/>
	</g>
</g></g> </svg>
