<?xml version="1.0" encoding="utf-8"?>
<!-- Generator: Adobe Illustrator 16.0.0, SVG Export Plug-In . SVG Version: 6.00 Build 0)  -->
<!DOCTYPE svg PUBLIC "-//W3C//DTD SVG 1.1//EN" "http://www.w3.org/Graphics/SVG/1.1/DTD/svg11.dtd">
<svg version="1.1" id="Layer_1" xmlns="http://www.w3.org/2000/svg" xmlns:xlink="http://www.w3.org/1999/xlink" x="0px" y="0px"
	 width="150px" height="150px" viewBox="0 0 150 150" enable-background="new 0 0 150 150" xml:space="preserve">
<path fill="#E22A28" d="M143.069,122.06c5.719,5.722,5.719,14.996,0,20.718c-5.718,5.719-14.999,5.719-20.718,0l-39.178-42.556
	l17.271-17.267L143.069,122.06z"/>
<path fill="#E22A28" d="M91.819,75.039l8.626,7.916l-17.271,17.267l-7.927-8.609L91.819,75.039z"/>
<path fill="#E9EEF0" d="M145.985,20.876L132.98,33.983h-8.288l-8.095-8.388v-8.288l12.814-13.004
	c-2.643-0.891-5.475-1.375-8.42-1.375C102.941,2.93,90.261,20.683,96,37.719L71.107,62.615l-0.02-0.021l-38.862-38.95V15.36
	L11.51,2.93l-8.285,8.286L15.653,31.93l8.284,0.003l38.864,38.949l0.017,0.017L38.012,95.708
	c-17.004-5.728-34.789,6.904-34.789,24.991c0,2.945,0.483,5.777,1.373,8.42l13.005-13.107h8.288l8.388,8.388v8.288l-13.107,13.005
	c2.642,0.891,5.475,1.374,8.419,1.374c18.085,0,30.72-17.785,24.993-34.789c12.015-12.016,46.027-46.027,57.989-57.989
	c2.646,0.892,5.479,1.375,8.422,1.375c14.563,0,26.367-11.804,26.367-26.366C147.359,26.353,146.876,23.519,145.985,20.876z"/>
<path d="M101.906,45.454c-1.617,0-2.93,1.309-2.93,2.929c0,1.618,1.313,2.93,2.93,2.93c1.621,0,2.93-1.312,2.93-2.93
	C104.836,46.763,103.527,45.454,101.906,45.454z"/>
<path d="M48.675,98.684c-1.621,0-2.93,1.313-2.93,2.93c0,1.621,1.309,2.93,2.93,2.93c1.617,0,2.93-1.309,2.93-2.93
	C51.605,99.996,50.292,98.684,48.675,98.684z"/>
<path d="M146.648,18.023c-0.989-0.23-2.028,0.068-2.742,0.79L131.76,31.055h-5.822l-6.41-6.641V18.51L131.5,6.359
	c0.708-0.719,0.996-1.752,0.762-2.735c-0.233-0.982-0.957-1.774-1.914-2.097C127.341,0.514,124.193,0,120.992,0
	c-9.541,0-18.211,4.449-23.783,12.208c-5.217,7.262-6.824,16.163-4.521,24.68l-21.58,21.58L35.155,22.433V15.36
	c0-1.029-0.541-1.983-1.423-2.512L13.018,0.418c-1.153-0.692-2.629-0.511-3.579,0.44L1.153,9.143c-0.95,0.951-1.132,2.426-0.44,3.58
	l12.428,20.715c0.529,0.882,1.482,1.421,2.511,1.422l7.07,0.002l35.956,36.035L37.181,92.395
	c-8.518-2.302-17.422-0.691-24.688,4.527c-7.753,5.57-12.199,14.236-12.199,23.779c0,3.199,0.514,6.348,1.528,9.354
	c0.324,0.963,1.124,1.689,2.112,1.918c0.99,0.23,2.028-0.068,2.743-0.789l12.145-12.24h5.855l6.671,6.67v5.855l-12.241,12.145
	c-0.721,0.715-1.02,1.753-0.79,2.743c0.229,0.989,0.956,1.788,1.918,2.112c3.006,1.014,6.154,1.527,9.354,1.527
	c9.542,0,18.208-4.447,23.778-12.2c5.22-7.266,6.83-16.169,4.527-24.687L75.16,95.844l3.955,4.295l-1.814,1.814
	c-1.145,1.145-1.145,3,0,4.145c1.145,1.143,2.998,1.143,4.144,0l1.644-1.645l37.108,40.309c0.027,0.03,0.056,0.059,0.085,0.088
	c6.866,6.866,17.99,6.868,24.861-0.002c6.85-6.854,6.85-18.006,0-24.859c-0.03-0.03-0.061-0.059-0.092-0.088L104.68,82.863
	l1.625-1.625c1.145-1.144,1.145-2.998,0-4.143s-2.999-1.145-4.145,0l-1.803,1.803l-4.304-3.95l17.349-17.35
	c2.467,0.659,5.012,0.994,7.59,0.994c16.154,0,29.297-13.143,29.297-29.296c0-3.201-0.515-6.348-1.528-9.355
	C148.438,18.979,147.637,18.252,146.648,18.023z M26.011,29.863c-0.549-0.55-1.294-0.831-2.073-0.831l-6.626-0.002L6.915,11.669
	l5.05-5.05l17.331,10.4v6.626c0,0.776,0.308,1.52,0.856,2.069l36.813,36.897l-4.144,4.143L26.011,29.863z M100.531,87.011
	l40.51,37.162c4.524,4.573,4.511,11.978-0.043,16.534c-4.564,4.563-11.952,4.577-16.534,0.039l-37.229-40.439L100.531,87.011z
	 M96.211,83.045L83.262,95.992l-3.955-4.297l12.6-12.601L96.211,83.045z M120.992,52.733c-2.563,0-5.082-0.411-7.487-1.221
	c-1.054-0.354-2.22-0.082-3.007,0.705C95.811,66.904,64.164,98.551,52.51,110.205c-0.788,0.787-1.061,1.953-0.705,3.008
	c2.435,7.231,1.27,14.945-3.198,21.165c-4.455,6.201-11.388,9.759-19.019,9.759c-0.857,0-1.71-0.047-2.555-0.137l9.305-9.233
	c0.554-0.549,0.867-1.298,0.867-2.079v-8.288c0-0.776-0.309-1.522-0.858-2.071l-8.388-8.387c-0.549-0.55-1.294-0.859-2.071-0.859
	h-8.288c-0.782,0-1.53,0.313-2.081,0.867l-9.232,9.305c-0.092-0.844-0.137-1.697-0.137-2.555c0-7.631,3.557-14.563,9.759-19.019
	c6.219-4.468,13.933-5.634,21.166-3.197c1.054,0.356,2.219,0.083,3.006-0.705c0.161-0.16,57.947-57.947,57.988-57.988
	c0.788-0.788,1.06-1.951,0.705-3.006c-2.437-7.231-1.274-14.943,3.19-21.158c4.459-6.208,11.393-9.767,19.025-9.767
	c0.883,0,1.761,0.049,2.631,0.146l-9.112,9.248c-0.54,0.548-0.843,1.286-0.843,2.055v8.288c0,0.76,0.295,1.489,0.822,2.035
	l8.094,8.387c0.553,0.572,1.313,0.895,2.108,0.895h8.288c0.78,0,1.529-0.312,2.079-0.866l9.231-9.304
	c0.092,0.844,0.139,1.697,0.139,2.554C144.43,42.22,133.916,52.733,120.992,52.733z"/>
<path d="M91.549,54.596L54.888,91.258c-1.143,1.143-1.143,2.998,0,4.143c1.145,1.145,3,1.145,4.144,0l36.661-36.661
	c1.145-1.144,1.145-2.999,0-4.143C94.549,53.452,92.693,53.452,91.549,54.596z"/>
<path d="M128.57,132.422c1.145,1.141,3,1.141,4.145-0.007c1.143-1.146,1.139-3.001-0.007-4.143l-26.407-26.323
	c-1.146-1.142-3.002-1.139-4.143,0.008c-1.144,1.146-1.141,3,0.006,4.143L128.57,132.422z"/>
</svg>
